^D:\DROPBOX\ISEP\3º ANO 1º SEMESTRE\SGRAI\SGRAI_PROJETO_2016-2017\LABIRINTO\CAMERA.CPP|D:\DROPBOX\ISEP\3º ANO 1º SEMESTRE\SGRAI\SGRAI_PROJETO_2016-2017\LABIRINTO\JOGOTANQUES.CPP|D:\DROPBOX\ISEP\3º ANO 1º SEMESTRE\SGRAI\SGRAI_PROJETO_2016-2017\LABIRINTO\JPEG.CPP|D:\DROPBOX\ISEP\3º ANO 1º SEMESTRE\SGRAI\SGRAI_PROJETO_2016-2017\LABIRINTO\MAIN.CPP|D:\DROPBOX\ISEP\3º ANO 1º SEMESTRE\SGRAI\SGRAI_PROJETO_2016-2017\LABIRINTO\MATH.CPP|D:\DROPBOX\ISEP\3º ANO 1º SEMESTRE\SGRAI\SGRAI_PROJETO_2016-2017\LABIRINTO\MDLVIEWER.CPP|D:\DROPBOX\ISEP\3º ANO 1º SEMESTRE\SGRAI\SGRAI_PROJETO_2016-2017\LABIRINTO\STUDIO_RENDER.CPP|D:\DROPBOX\ISEP\3º ANO 1º SEMESTRE\SGRAI\SGRAI_PROJETO_2016-2017\LABIRINTO\STUDIO_UTILS.CPP
D:\DROPBOX\ISEP\3º ANO 1º SEMESTRE\SGRAI\SGRAI_PROJETO_2016-2017\LABIRINTO\LABIRINTO\DEBUG\VC140.PDB
D:\DROPBOX\ISEP\3º ANO 1º SEMESTRE\SGRAI\SGRAI_PROJETO_2016-2017\LABIRINTO\LABIRINTO\DEBUG\VC140.IDB
D:\DROPBOX\ISEP\3º ANO 1º SEMESTRE\SGRAI\SGRAI_PROJETO_2016-2017\LABIRINTO\LABIRINTO\DEBUG\CAMERA.OBJ
D:\DROPBOX\ISEP\3º ANO 1º SEMESTRE\SGRAI\SGRAI_PROJETO_2016-2017\LABIRINTO\LABIRINTO\DEBUG\JPEG.OBJ
D:\DROPBOX\ISEP\3º ANO 1º SEMESTRE\SGRAI\SGRAI_PROJETO_2016-2017\LABIRINTO\LABIRINTO\DEBUG\MAIN.OBJ
D:\DROPBOX\ISEP\3º ANO 1º SEMESTRE\SGRAI\SGRAI_PROJETO_2016-2017\LABIRINTO\LABIRINTO\DEBUG\MATH.OBJ
D:\DROPBOX\ISEP\3º ANO 1º SEMESTRE\SGRAI\SGRAI_PROJETO_2016-2017\LABIRINTO\LABIRINTO\DEBUG\MDLVIEWER.OBJ
D:\DROPBOX\ISEP\3º ANO 1º SEMESTRE\SGRAI\SGRAI_PROJETO_2016-2017\LABIRINTO\LABIRINTO\DEBUG\STUDIO_RENDER.OBJ
D:\DROPBOX\ISEP\3º ANO 1º SEMESTRE\SGRAI\SGRAI_PROJETO_2016-2017\LABIRINTO\LABIRINTO\DEBUG\STUDIO_UTILS.OBJ
^D:\DROPBOX\ISEP\3º ANO 1º SEMESTRE\SGRAI\SGRAI_PROJETO_2016-2017\LABIRINTO\CAMERA.CPP
D:\DROPBOX\ISEP\3º ANO 1º SEMESTRE\SGRAI\SGRAI_PROJETO_2016-2017\LABIRINTO\LABIRINTO\DEBUG\VC140.PDB
^D:\DROPBOX\ISEP\3º ANO 1º SEMESTRE\SGRAI\SGRAI_PROJETO_2016-2017\LABIRINTO\JOGOTANQUES.CPP
D:\DROPBOX\ISEP\3º ANO 1º SEMESTRE\SGRAI\SGRAI_PROJETO_2016-2017\LABIRINTO\LABIRINTO\DEBUG\VC140.PDB
D:\DROPBOX\ISEP\3º ANO 1º SEMESTRE\SGRAI\SGRAI_PROJETO_2016-2017\LABIRINTO\LABIRINTO\DEBUG\VC140.IDB
D:\DROPBOX\ISEP\3º ANO 1º SEMESTRE\SGRAI\SGRAI_PROJETO_2016-2017\LABIRINTO\LABIRINTO\DEBUG\JOGOTANQUES.OBJ
^D:\DROPBOX\ISEP\3º ANO 1º SEMESTRE\SGRAI\SGRAI_PROJETO_2016-2017\LABIRINTO\JPEG.CPP
D:\DROPBOX\ISEP\3º ANO 1º SEMESTRE\SGRAI\SGRAI_PROJETO_2016-2017\LABIRINTO\LABIRINTO\DEBUG\VC140.PDB
^D:\DROPBOX\ISEP\3º ANO 1º SEMESTRE\SGRAI\SGRAI_PROJETO_2016-2017\LABIRINTO\MAIN.CPP
D:\DROPBOX\ISEP\3º ANO 1º SEMESTRE\SGRAI\SGRAI_PROJETO_2016-2017\LABIRINTO\LABIRINTO\DEBUG\VC140.PDB
^D:\DROPBOX\ISEP\3º ANO 1º SEMESTRE\SGRAI\SGRAI_PROJETO_2016-2017\LABIRINTO\MATH.CPP
D:\DROPBOX\ISEP\3º ANO 1º SEMESTRE\SGRAI\SGRAI_PROJETO_2016-2017\LABIRINTO\LABIRINTO\DEBUG\VC140.PDB
^D:\DROPBOX\ISEP\3º ANO 1º SEMESTRE\SGRAI\SGRAI_PROJETO_2016-2017\LABIRINTO\MDLVIEWER.CPP
D:\DROPBOX\ISEP\3º ANO 1º SEMESTRE\SGRAI\SGRAI_PROJETO_2016-2017\LABIRINTO\LABIRINTO\DEBUG\VC140.PDB
^D:\DROPBOX\ISEP\3º ANO 1º SEMESTRE\SGRAI\SGRAI_PROJETO_2016-2017\LABIRINTO\STUDIO_RENDER.CPP
D:\DROPBOX\ISEP\3º ANO 1º SEMESTRE\SGRAI\SGRAI_PROJETO_2016-2017\LABIRINTO\LABIRINTO\DEBUG\VC140.PDB
^D:\DROPBOX\ISEP\3º ANO 1º SEMESTRE\SGRAI\SGRAI_PROJETO_2016-2017\LABIRINTO\STUDIO_UTILS.CPP
D:\DROPBOX\ISEP\3º ANO 1º SEMESTRE\SGRAI\SGRAI_PROJETO_2016-2017\LABIRINTO\LABIRINTO\DEBUG\VC140.PDB
^D:\DROPBOX\ISEP\3º ANO 1º SEMESTRE\SGRAI\SGRAI_PROJETO_2016-2017\LABIRINTO\READJPEG.C
D:\DROPBOX\ISEP\3º ANO 1º SEMESTRE\SGRAI\SGRAI_PROJETO_2016-2017\LABIRINTO\LABIRINTO\DEBUG\VC140.PDB
D:\DROPBOX\ISEP\3º ANO 1º SEMESTRE\SGRAI\SGRAI_PROJETO_2016-2017\LABIRINTO\LABIRINTO\DEBUG\VC140.IDB
D:\DROPBOX\ISEP\3º ANO 1º SEMESTRE\SGRAI\SGRAI_PROJETO_2016-2017\LABIRINTO\LABIRINTO\DEBUG\READJPEG.OBJ
