^D:\DROPBOX\ISEP\3º ANO 1º SEMESTRE\SGRAI\SGRAI_PROJETO_2016-2017\LABIRINTO\LABIRINTO\DEBUG\CAMERA.OBJ|D:\DROPBOX\ISEP\3º ANO 1º SEMESTRE\SGRAI\SGRAI_PROJETO_2016-2017\LABIRINTO\LABIRINTO\DEBUG\JOGOTANQUES.OBJ|D:\DROPBOX\ISEP\3º ANO 1º SEMESTRE\SGRAI\SGRAI_PROJETO_2016-2017\LABIRINTO\LABIRINTO\DEBUG\JPEG.OBJ|D:\DROPBOX\ISEP\3º ANO 1º SEMESTRE\SGRAI\SGRAI_PROJETO_2016-2017\LABIRINTO\LABIRINTO\DEBUG\MAIN.OBJ|D:\DROPBOX\ISEP\3º ANO 1º SEMESTRE\SGRAI\SGRAI_PROJETO_2016-2017\LABIRINTO\LABIRINTO\DEBUG\MATH.OBJ|D:\DROPBOX\ISEP\3º ANO 1º SEMESTRE\SGRAI\SGRAI_PROJETO_2016-2017\LABIRINTO\LABIRINTO\DEBUG\MDLVIEWER.OBJ|D:\DROPBOX\ISEP\3º ANO 1º SEMESTRE\SGRAI\SGRAI_PROJETO_2016-2017\LABIRINTO\LABIRINTO\DEBUG\READJPEG.OBJ|D:\DROPBOX\ISEP\3º ANO 1º SEMESTRE\SGRAI\SGRAI_PROJETO_2016-2017\LABIRINTO\LABIRINTO\DEBUG\STUDIO_RENDER.OBJ|D:\DROPBOX\ISEP\3º ANO 1º SEMESTRE\SGRAI\SGRAI_PROJETO_2016-2017\LABIRINTO\LABIRINTO\DEBUG\STUDIO_UTILS.OBJ
D:\DROPBOX\ISEP\3º ANO 1º SEMESTRE\SGRAI\SGRAI_PROJETO_2016-2017\LABIRINTO\DEBUG\LABIRINTO.EXE
D:\DROPBOX\ISEP\3º ANO 1º SEMESTRE\SGRAI\SGRAI_PROJETO_2016-2017\LABIRINTO\DEBUG\LABIRINTO.PDB
